^C:\USERS\TPGAM\SOURCE\REPOS\ZADANIE 6(10ZADAN)\ZADANIE 6(10ZADAN)\DEBUG\10ZADAN.OBJ|C:\USERS\TPGAM\SOURCE\REPOS\ZADANIE 6(10ZADAN)\ZADANIE 6(10ZADAN)\DEBUG\ZADANIA.OBJ
C:\USERS\TPGAM\SOURCE\REPOS\ZADANIE 6(10ZADAN)\DEBUG\ZADANIE 6(10ZADAN).EXE
C:\USERS\TPGAM\SOURCE\REPOS\ZADANIE 6(10ZADAN)\DEBUG\ZADANIE 6(10ZADAN).ILK
C:\USERS\TPGAM\SOURCE\REPOS\ZADANIE 6(10ZADAN)\DEBUG\ZADANIE 6(10ZADAN).PDB
